[gd_scene load_steps=8 format=2]

[ext_resource path="res://src/spawner/Spawner.tscn" type="PackedScene" id=1]
[ext_resource path="res://src/sorter/Sorter.tscn" type="PackedScene" id=2]
[ext_resource path="res://src/scanner/Scanner.tscn" type="PackedScene" id=3]
[ext_resource path="res://src/assembly_line/AssemblyLine.tscn" type="PackedScene" id=4]
[ext_resource path="res://src/trash/Trash.tscn" type="PackedScene" id=5]
[ext_resource path="res://src/sky_jump/SkyJump.tscn" type="PackedScene" id=6]
[ext_resource path="res://assets/display_font.tres" type="DynamicFont" id=7]

[node name="Game" type="Node2D"]

[node name="Camera2D" type="Camera2D" parent="."]
current = true

[node name="Spawner" parent="." instance=ExtResource( 1 )]
position = Vector2( 0, 600 )
z_index = 50

[node name="Scanner" parent="." instance=ExtResource( 3 )]
position = Vector2( 0, 256 )
z_index = 100

[node name="Sorter" parent="." instance=ExtResource( 2 )]
position = Vector2( 0, -92 )
location_node_accepted = NodePath("../SkyJump")
location_node_rejected = NodePath("../Trash")
stats_node = NodePath("../Label")

[node name="AssemblyLine" parent="." instance=ExtResource( 4 )]

[node name="Trash" parent="." instance=ExtResource( 5 )]
position = Vector2( 179, -131 )

[node name="SkyJump" parent="." instance=ExtResource( 6 )]
position = Vector2( -216, -52 )

[node name="Label" type="Label" parent="."]
margin_left = -428.0
margin_top = 21.0
margin_right = -89.0
margin_bottom = 65.0
custom_fonts/font = ExtResource( 7 )
custom_colors/font_color = Color( 0, 0, 0, 1 )
text = "Statistics"
align = 2
__meta__ = {
"_edit_use_anchors_": false
}
