[gd_scene load_steps=4 format=2]

[ext_resource path="res://src/build_item/godot_sprites.png" type="Texture" id=1]
[ext_resource path="res://src/build_item/BuildItem.gd" type="Script" id=2]

[sub_resource type="CircleShape2D" id=1]
radius = 15.0

[node name="BuildItem" type="Area2D"]
script = ExtResource( 2 )

[node name="CollisionShape2D" type="CollisionShape2D" parent="."]
shape = SubResource( 1 )

[node name="Sprite" type="Sprite" parent="."]
texture = ExtResource( 1 )
hframes = 3

[node name="Tween" type="Tween" parent="."]
